Project Nobel Prize Winner
…
# Counting the number of prizes won by different nationalities.

nobel %>% 
  filter(year>=1902 & year<=2016) %>% 
  group_by(birth_country) %>% 
  summarise(count=n()) %>% 
  arrange(desc(count))

## # A tibble: 122 x 2
##    birth_country            count
##    <chr>                    <int>
##  1 United States of America   259
##  2 United Kingdom              85
##  3 Germany                     61
##  4 France                      49
##  5 Sweden                      29
##  6 <NA>                        26
##  7 Japan                       24
##  8 Canada                      18
##  9 Italy                       17
## 10 Netherlands                 17
## # ... with 112 more rows
…
5. Plot the proportion of female laureates by decade split by prize category.

prop_female_winners <- nobel %>% 
                        mutate(female_winner=(sex=="Female")) %>% 
                        mutate(decade=(year-year%%10)) %>% 
                        group_by(decade, category) %>% 
                        summarise(proportion=mean(female_winner))
prop_female_winners <- prop_female_winners[-nrow(prop_female_winners), ]
prop_female_winners

## # A tibble: 65 x 3
## # Groups:   decade [12]
##    decade category   proportion
##     <dbl> <chr>           <dbl>
##  1   1900 Chemistry      0     
##  2   1900 Literature     0.1   
##  3   1900 Medicine       0     
##  4   1900 Peace         NA     
##  5   1900 Physics        0.0769
##  6   1910 Chemistry      0.125 
##  7   1910 Literature     0     
##  8   1910 Medicine       0     
##  9   1910 Peace         NA     
## 10   1910 Physics        0     
## # ... with 55 more rows
…
7. Extract and display the names of repeat Nobel Prize winners.

nobel %>% 
  #mutate(complete_name= paste(firstname, surname)) %>% 
  group_by(full_name) %>% 
  summarise(count=n()) %>% 
  arrange(desc(count))

## # A tibble: 904 x 2
##    full_name                                                         count
##    <chr>                                                             <int>
##  1 Comit international de la Croix Rouge (International Committee      3
##  2 Frederick Sanger                                                      2
##  3 John Bardeen                                                          2
##  4 Linus Carl Pauling                                                    2
##  5 Marie Curie, ne Sklodowska                                           2
##  6 Office of the United Nations High Commissioner for Refugees (UNH     2
##  7 Aage Niels Bohr                                                       1
##  8 Aaron Ciechanover                                                     1
##  9 Aaron Klug                                                            1
## 10 Abdus Salam                                                           1
## # ... with 894 more rows
…
