Apuntes Tidyverse - Gapminder example
…
## The following objects are masked from 'package:stats':
## 
##     filter, lag

## The following objects are masked from 'package:base':
## 
##     intersect, setdiff, setequal, union

# Load the dplyr package
library(ggplot2)
# Look at the gapminder dataset
gapminder

## # A tibble: 1,704 x 6
##    country     continent  year lifeExp      pop gdpPercap
##    <fct>       <fct>     <int>   <dbl>    <int>     <dbl>
##  1 Afghanistan Asia       1952    28.8  8425333      779.
##  2 Afghanistan Asia       1957    30.3  9240934      821.
##  3 Afghanistan Asia       1962    32.0 10267083      853.
##  4 Afghanistan Asia       1967    34.0 11537966      836.
##  5 Afghanistan Asia       1972    36.1 13079460      740.
##  6 Afghanistan Asia       1977    38.4 14880372      786.
##  7 Afghanistan Asia       1982    39.9 12881816      978.
##  8 Afghanistan Asia       1987    40.8 13867957      852.
##  9 Afghanistan Asia       1992    41.7 16317921      649.
## 10 Afghanistan Asia       1997    41.8 22227415      635.
## # ... with 1,694 more rows
…
## # A tibble: 1 x 6
##   country       continent  year lifeExp       pop gdpPercap
##   <fct>         <fct>     <int>   <dbl>     <int>     <dbl>
## 1 United States Americas   2007    78.2 301139947    42952.

arrange(): sorts a table based on a condition. It needs pipes to pass the concepts %>%. Will return a new dataset not affecting the original. Use desc(condition) to sort it descendent.

# Order the data according to gdpPercap and then population in descencing order.
gapminder %>%
  arrange(gdpPercap)

## # A tibble: 1,704 x 6
##    country          continent  year lifeExp      pop gdpPercap
##    <fct>            <fct>     <int>   <dbl>    <int>     <dbl>
##  1 Congo, Dem. Rep. Africa     2002    45.0 55379852      241.
##  2 Congo, Dem. Rep. Africa     2007    46.5 64606759      278.
##  3 Lesotho          Africa     1952    42.1   748747      299.
##  4 Guinea-Bissau    Africa     1952    32.5   580653      300.
##  5 Congo, Dem. Rep. Africa     1997    42.6 47798986      312.
##  6 Eritrea          Africa     1952    35.9  1438760      329.
##  7 Myanmar          Asia       1952    36.3 20092996      331 
##  8 Lesotho          Africa     1957    45.0   813338      336.
##  9 Burundi          Africa     1952    39.0  2445618      339.
## 10 Eritrea          Africa     1957    38.0  1542611      344.
## # ... with 1,694 more rows

gapminder %>%
  arrange(desc(pop))

## # A tibble: 1,704 x 6
##    country continent  year lifeExp        pop gdpPercap
##    <fct>   <fct>     <int>   <dbl>      <int>     <dbl>
##  1 China   Asia       2007    73.0 1318683096     4959.
##  2 China   Asia       2002    72.0 1280400000     3119.
##  3 China   Asia       1997    70.4 1230075000     2289.
##  4 China   Asia       1992    68.7 1164970000     1656.
##  5 India   Asia       2007    64.7 1110396331     2452.
##  6 China   Asia       1987    67.3 1084035000     1379.
##  7 India   Asia       2002    62.9 1034172547     1747.
##  8 China   Asia       1982    65.5 1000281000      962.
##  9 India   Asia       1997    61.8  959000000     1459.
## 10 China   Asia       1977    64.0  943455000      741.
## # ... with 1,694 more rows

mutate() : used to change a variable or adding a new variable. It needs pipes to pass the concepts %>%. Will return a new dataset not affecting the original.

# Create and modify a variable. GDP is a new variable (gdpPercap*pop)
gapminder %>%
  mutate(gdp = gdpPercap*pop)

## # A tibble: 1,704 x 7
##    country     continent  year lifeExp      pop gdpPercap          gdp
##    <fct>       <fct>     <int>   <dbl>    <int>     <dbl>        <dbl>
##  1 Afghanistan Asia       1952    28.8  8425333      779.  6567086330.
##  2 Afghanistan Asia       1957    30.3  9240934      821.  7585448670.
##  3 Afghanistan Asia       1962    32.0 10267083      853.  8758855797.
##  4 Afghanistan Asia       1967    34.0 11537966      836.  9648014150.
##  5 Afghanistan Asia       1972    36.1 13079460      740.  9678553274.
##  6 Afghanistan Asia       1977    38.4 14880372      786. 11697659231.
##  7 Afghanistan Asia       1982    39.9 12881816      978. 12598563401.
##  8 Afghanistan Asia       1987    40.8 13867957      852. 11820990309.
##  9 Afghanistan Asia       1992    41.7 16317921      649. 10595901589.
## 10 Afghanistan Asia       1997    41.8 22227415      635. 14121995875.
## # ... with 1,694 more rows
…
